<svg width="70" height="70" viewBox="0 0 70 70" fill="none" xmlns="http://www.w3.org/2000/svg">
<circle cx="35" cy="35" r="34" stroke="#F7D5AE" stroke-width="2"/>
<path fill-rule="evenodd" clip-rule="evenodd" d="M38.9753 11H30.6092V19.3827C30.6092 21.867 30.239 24.3295 29.5173 26.6906L26.9157 24.8632C27.3747 23.0787 27.6092 21.2376 27.6092 19.3827V11V8H30.6092H38.9753H41.9753V11V19.3827C41.9753 22.7981 42.7705 26.1666 44.2979 29.2214L50.3485 41.3227L45.1788 37.6914L41.6146 30.5631C39.8789 27.0917 38.9753 23.2638 38.9753 19.3827V11ZM28.8622 28.5642L26.3271 26.7835C26.1077 27.3976 25.8607 28.0028 25.5866 28.5971L28.077 30.3463C28.3623 29.7617 28.6241 29.1671 28.8622 28.5642ZM27.2144 32.0741L24.7321 30.3305L13.9275 51.9398C12.5976 54.5994 14.5316 57.7286 17.5052 57.7286H27.6092H41.9753H52.0793C54.9902 57.7286 56.9049 54.7299 55.7368 52.1086L50.5742 48.4823L52.9738 53.2814C53.3062 53.9463 52.8227 54.7286 52.0793 54.7286H41.9753H27.6092H17.5052C16.7618 54.7286 16.2783 53.9463 16.6107 53.2814L27.2144 32.0741ZM45.7622 45.1023L49.1583 52.2032H20.4262L25.4909 41.6135C26.1352 40.2662 27.3263 39.2599 28.7623 38.8496C29.8091 38.5505 30.9232 38.5866 31.9485 38.9528L34.0996 39.721C35.7062 40.2948 37.4031 40.5251 39.0831 40.4108L45.7622 45.1023ZM44.0815 41.588L41.7305 39.9367C41.8692 39.8958 42.0074 39.8525 42.1449 39.8066L43.0804 39.4948L44.0815 41.588ZM48.7757 44.8853L46.9772 41.2884L52.147 44.9196L53.9455 48.5166L48.7757 44.8853Z" fill="#2B2846"/>
<path d="M7.99658 13.9053L63.9069 53.1772L62.7573 54.8138L6.84701 15.5419L7.99658 13.9053Z" fill="#F7D5AE"/>
</svg>
